{
":-)": [ "joy"],
":)": [ "joy"],
":D": [ "joy"],
":o)": [ "joy"],
":]": [ "joy"],
":3": [ "joy"],
":c)": [ "joy"],
":>": [ "joy"],
"=]": [ "joy"],
"8)": [ "joy"],
"=)": [ "joy"],
":}": [ "joy"],
":^)": [ "joy"],
":っ)": [ "joy"],
":-D": [ "joy"],
"8-D": [ "joy"],
"8D": [ "joy"],
"x-D": [ "joy"],
"xD": [ "joy"],
"X-D": [ "joy"],
"XD": [ "joy"],
"=-D": [ "joy"],
"=D": [ "joy"],
"=-3": [ "joy"],
"=3": [ "joy"],
"B^D": [ "joy"],
":-))": [ "joy"],
">:[": [ "sadness"],
":-(": [ "sadness"],
":(": [ "sadness"],
":-c": [ "sadness"],
":c": [ "sadness"],
":-<": [ "sadness"],
":っC": [ "sadness"],
":<": [ "sadness"],
":-[": [ "sadness"],
":[": [ "sadness"],
":{": [ "sadness"],
";(": [ "sadness"],
":-||": [ "anger"],
":@": [ "anger"],
">:(": [ "anger"],
":'-(": [ "sadness"],
":'(": [ "sadness"],
":'-)": [ "joy"],
":')": [ "joy"],
"D:<": [ "anger", "sadness"],
"D:": [ "sadness"],
"D8": [ "sadness"],
"D;": [ "sadness"],
"D=": [ "sadness"],
"DX": [ "sadness"],
"v.v": [ "sadness"],
"D-':": [ "sadness"],
">:O": [ "surprise"],
":-O": [ "surprise"],
":O": [ "surprise"],
":-o": [ "surprise"],
":o": [ "surprise"],
"8-0": [ "surprise"],
"O_O": [ "surprise"],
"o-o": [ "surprise"],
"O_o": [ "surprise"],
"o_O": [ "surprise"],
"o_o": [ "surprise"],
"O-O": [ "surprise"],
":*": [ "love"],
":^*": [ "love"],
"( '}{' )": [ "love"],
";-)": [ "joy"],
";)": [ "joy"],
"*-)": [ "joy"],
"*)": [ "joy"],
";-]": [ "joy"],
";]": [ "joy"],
";D": [ "joy"],
";^)": [ "joy"],
":-,": [ "joy"],
">:P": [ "joy"],
":-P": [ "joy"],
":P": [ "joy"],
"X-P": [ "joy"],
"x-p": [ "joy"],
"xp": [ "joy"],
"XP": [ "joy"],
":-p": [ "joy"],
":p": [ "joy"],
"=p": [ "joy"],
":-Þ": [ "joy"],
":Þ": [ "joy"],
":þ": [ "joy"],
":-þ": [ "joy"],
":-b": [ "joy"],
":b": [ "joy"],
"d:": [ "joy"],
">:\\": [ "fear"],
">:/": [ "fear"],
":-/": [ "fear"],
":-.": [ "fear"],
":/": [ "fear"],
":\\": [ "fear"],
"=/": [ "fear"],
"=\\": [ "fear"],
":L": [ "fear"],
"=L": [ "fear"],
":S": [ "fear"],
">.<": [ "fear"],
":|": [ "fear"],
":-|": [ "fear"],
":$": [ "fear"],
":-X": [ "fear"],
":X": [ "fear"],
":-#": [ "fear"],
":#": [ "fear"],
"O:-)": [ "joy", "love"],
"0:-3": [ "joy", "love"],
"0:3": [ "joy", "love"],
"0:-)": [ "joy", "love"],
"0:)": [ "joy", "love"],
"0;^)": [ "joy", "love"],
">:)": [ "joy", "anger"],
">;)": [ "joy", "anger"],
">:-)": [ "joy", "anger"],
"}:-)": [ "joy", "anger"],
"}:)": [ "joy", "anger"],
"3:-)": [ "joy", "anger"],
"3:)": [ "joy", "anger"],
"o/\\o": [ "joy", "love"],
"^5": [ "joy", "love"],
">_>^": [ "joy", "love"],
"^<_<": [ "joy", "love"],
":-&": [ "fear"],
":&": [ "fear"],
"#-)": [ "joy"],
"<:-|": [ "fear"],
"ಠ_ಠ": [ "anger", "sadness"],
"\\o/": [ "joy"],
"*\\0/*": [ "joy"],
"@}-;-'---": [ "love"],
"@>-->--": [ "love"],
"<3": [ "love"],
"</3": [ "sadness"],
"(>_<)": [ "fear"],
"(>_<)>": [ "fear"],
"(^^ゞ": [ "fear"],
"(^_^;)": [ "fear"],
"(-_-;)": [ "fear"],
"(~_~;)": [ "fear"],
"(・。・;)": [ "fear"],
"(・_・;)": [ "fear"],
"(・・;)": [ "fear"],
"^^;": [ "fear"],
"^_^;": [ "fear"],
"(#^.^#)": [ "fear"],
"(^ ^;)": [ "fear"],
"^_^": [ "joy"],
"(゜o゜)": [ "joy"],
"(^_^)/": [ "joy"],
"(^O^)／": [ "joy"],
"(^o^)／": [ "joy"],
"(^^)/": [ "joy"],
"(≧∇≦)/": [ "joy"],
"(/◕ヮ◕)/": [ "joy"],
"(^o^)丿": [ "joy"],
"∩( ・ω・)∩": [ "joy"],
"( ・ω・)": [ "joy"],
"^ω^": [ "joy"],
"('_')": [ "sadness"],
"(/_;)": [ "sadness"],
"(T_T)": [ "sadness"],
"(;_;)": [ "sadness"],
"(;_;": [ "sadness"],
"(;_:)": [ "sadness"],
"(;O;)": [ "sadness"],
"(:_;)": [ "sadness"],
"(ToT)": [ "sadness"],
"(Ｔ▽Ｔ)": [ "sadness"],
";_;": [ "sadness"],
";-;": [ "sadness"],
";n;": [ "sadness"],
";;": [ "sadness"],
"Q.Q": [ "sadness"],
"T.T": [ "sadness"],
"QQ": [ "sadness"],
"Q_Q": [ "sadness"],
"(ー_ー)!!": [ "sadness"],
"(-.-)": [ "sadness"],
"(-_-)": [ "sadness"],
"( 一一)": [ "sadness"],
"(；一_一)": [ "sadness"],
"(=^・^=)": [ "joy"],
"(=^・・^=)": [ "joy"],
"=^_^=": [ "joy"],
"^m^": [ "joy"],
">^_^<": [ "joy"],
"<^!^>": [ "joy"],
"^/^": [ "joy"],
"(*^_^*)": [ "joy"],
"§^。^§": [ "joy"],
"(^<^)": [ "joy"],
"(^.^)": [ "joy"],
"(^ム^)": [ "joy"],
"(^・^)": [ "joy"],
"(^。^)": [ "joy"],
"(^_^.)": [ "joy"],
"(^_^)": [ "joy"],
"(^^)": [ "joy"],
"(^J^)": [ "joy"],
"(*^。^*)": [ "joy"],
"^_^": [ "joy"],
"(#^.^#)": [ "joy"],
"(^－^)": [ "joy"],
"(^^)/~~~": [ "joy"],
"(^_^)/~": [ "joy"],
"(;_;)/~~~": [ "sadness"],
"(^.^)/~~~": [ "joy"],
"(@^^)/~~~": [ "joy"],
"(T_T)/~~~": [ "sadness"],
"(ToT)/~~~": [ "sadness"],
"(*^0^*)": [ "joy"],
"(*_*)": [ "surprise"],
"(*_*;": [ "surprise"],
"(+_+)": [ "surprise"],
"(@_@)": [ "surprise"],
"(@_@。": [ "surprise"],
"(＠_＠;)": [ "surprise"],
"＼(◎o◎)／！": [ "surprise"],
"!(^^)!": [ "joy"],
"(*^^)v": [ "joy"],
"(^^)v": [ "joy"],
"(^_^)v": [ "joy"],
"(＾▽＾)": [ "joy"],
"(・∀・)": [ "joy"],
"( ´∀｀)": [ "joy"],
"(⌒▽⌒)": [ "joy"],
"(＾ｖ＾)": [ "joy"],
"<`～´>": [ "fear"],
"<`ヘ´>": [ "fear"],
"(ーー;)": [ "fear"],
":-P": [ "joy"],
":-O": [ "surprise"],
":->": [ "joy"],
":-)": [ "joy"],
":-<": [ "sadness"],
":(": [ "sadness"],
":-(": [ "sadness"],
":)": [ "joy"],
"(●＾o＾●)": [ "joy"],
"(＾ｖ＾)": [ "joy"],
"(＾ｕ＾)": [ "joy"],
"(＾◇＾)": [ "joy"],
"( ^)o(^ )": [ "joy"],
"(^O^)": [ "joy"],
"(^o^)": [ "joy"],
"(^○^)": [ "joy"],
")^o^(": [ "joy"],
"(*^▽^*)": [ "joy"],
"(✿◠‿◠)": [ "joy"],
"(￣□￣；)": [ "surprise"],
"°o°": [ "surprise"],
"°O°": [ "surprise"],
":O": [ "surprise"],
"o_O": [ "surprise"],
"o_0": [ "surprise"],
"o.O": [ "surprise"],
"(o.o)": [ "surprise"],
"(*´▽｀*)": [ "love"],
"(*°∀°)=3": [ "love"],
"( ﾟ Дﾟ)": [ "surprise"],
"(╯°□°)╯︵ ┻━┻": [ "anger"],
"┻━┻ ︵ヽ(`Д´)ﾉ︵ ┻━┻": [ "anger"],
"┬─┬ノ( º _ ºノ)": [ "anger"],
"(ノಠ益ಠ)ノ彡┻━┻": [ "anger"]
}